{
  "count": 1224,
  "next": "https://erp.epallet.com/api/customer_product_list/?ordering=relevance&page=2&page_size=24&post_zip=77477",
  "previous": null,
  "results": [
    {
      "id": 600425,
      "name": "GM FRUIT ROLL-UPS VARIETY PACK 10CT",
      "upc": "",
      "description_short": "FRUIT ROLL-UPS VAR PACK 10CT",
      "brand_name": "General Mills-EP",
      "case_per_pallet": 120,
      "pack_size": "10/5 oz",
      "slug": "general-mills-ep-gm-fruit-roll-ups-variety-pack-10ct-600425",
      "cool_school_point_eligible": false,
      "is_prototype": false,
      "is_closeout_product": false,
      "min_pallet_quantity": 1,
      "is_available": true,
      "is_wished": false,
      "sold_in_stack": false,
      "lead_time_days": 21,
      "for_mixed_pallet": true,
      "has_promo": false,
      "delivered_price": "4282.80",
      "delivered_case_price": "35.69",
      "per_unit_delivered_price": "3.57",
      "per_oz_delivered_price": "0.71",
      "plp_image_url": "https://images.epallet.com/production/media/products/images/vendor_5697/product_600425/plp_thumbnail_1589386.jpg",
      "main_category": "Non-Profit / Emergency Relief, Retail",
      "sub_category": "Grains & Cereals, Snacks"
    },
    {
      "id": 600274,
      "name": "SENOR RICO REAL DESSERT SUGAR FREE PARFAIT, 8CT",
      "upc": "4427604316",
      "description_short": "SR REAL DESSERT SF PARFAIT",
      "brand_name": "Senor Rico-EP",
      "case_per_pallet": 126,
      "pack_size": "6/28 oz",
      "slug": "senor-rico-ep-senor-rico-real-dessert-sugar-free-parfait-8ct-600274",
      "cool_school_point_eligible": false,
      "is_prototype": false,
      "is_closeout_product": false,
      "min_pallet_quantity": 1,
      "is_available": true,
      "is_wished": false,
      "sold_in_stack": false,
      "lead_time_days": 21,
      "for_mixed_pallet": true,
      "has_promo": false,
      "delivered_price": "3530.52",
      "delivered_case_price": "28.02",
      "per_unit_delivered_price": "4.67",
      "per_oz_delivered_price": "0.17",
      "plp_image_url": "https://images.epallet.com/production/media/products/images/vendor_5697/product_600274/plp_thumbnail_1589178.jpg",
      "main_category": "Non-Profit / Emergency Relief, Retail",
      "sub_category": "Snacks"
    },
    {
      "id": 600273,
      "name": "SENOR RICO RICE PUDDING",
      "upc": "9792812061",
      "description_short": "SENOR RICO RICE PUDDING",
      "brand_name": "Senor Rico-EP",
      "case_per_pallet": 130,
      "pack_size": "6/22 oz",
      "slug": "senor-rico-ep-senor-rico-rice-pudding-600273",
      "cool_school_point_eligible": false,
      "is_prototype": false,
      "is_closeout_product": false,
      "min_pallet_quantity": 1,
      "is_available": true,
      "is_wished": false,
      "sold_in_stack": false,
      "lead_time_days": 21,
      "for_mixed_pallet": true,
      "has_promo": false,
      "delivered_price": "2900.30",
      "delivered_case_price": "22.31",
      "per_unit_delivered_price": "3.72",
      "per_oz_delivered_price": "0.17",
      "plp_image_url": "https://images.epallet.com/production/media/products/images/vendor_5697/product_600273/plp_thumbnail_1589177.jpg",
      "main_category": "Non-Profit / Emergency Relief, Retail",
      "sub_category": "Snacks"
    },
    {
      "id": 600249,
      "name": "SENOR RICO REAL DESSERT SUGAR FREE GELATIN",
      "upc": "4427604317",
      "description_short": "SR REAL DESSERT SF GELATIN",
      "brand_name": "Senor Rico-EP",
      "case_per_pallet": 128,
      "pack_size": "4/39 oz",
      "slug": "senor-rico-ep-senor-rico-real-dessert-sugar-free-gelatin-600249",
      "cool_school_point_eligible": false,
      "is_prototype": false,
      "is_closeout_product": false,
      "min_pallet_quantity": 1,
      "is_available": true,
      "is_wished": false,
      "sold_in_stack": false,
      "lead_time_days": 21,
      "for_mixed_pallet": true,
      "has_promo": false,
      "delivered_price": "2846.72",
      "delivered_case_price": "22.24",
      "per_unit_delivered_price": "5.56",
      "per_oz_delivered_price": "0.14",
      "plp_image_url": "https://images.epallet.com/production/media/products/images/vendor_5697/product_600249/plp_thumbnail_1589179.jpg",
      "main_category": "Non-Profit / Emergency Relief, Retail",
      "sub_category": "Snacks"
    },
    {
      "id": 600241,
      "name": "SENOR RICO 12PK ASSORTED GELATIN CUPS",
      "upc": "9792811213",
      "description_short": "SENOR RICO 12PK GELATIN ASST",
      "brand_name": "Senor Rico-EP",
      "case_per_pallet": 128,
      "pack_size": "4/42 oz",
      "slug": "senor-rico-ep-senor-rico-12pk-assorted-gelatin-cups-600241",
      "cool_school_point_eligible": false,
      "is_prototype": false,
      "is_closeout_product": false,
      "min_pallet_quantity": 1,
      "is_available": true,
      "is_wished": false,
      "sold_in_stack": false,
      "lead_time_days": 21,
      "for_mixed_pallet": true,
      "has_promo": false,
      "delivered_price": "2743.04",
      "delivered_case_price": "21.43",
      "per_unit_delivered_price": "5.36",
      "per_oz_delivered_price": "0.13",
      "plp_image_url": "https://images.epallet.com/production/media/products/images/vendor_5697/product_600241/plp_thumbnail_1589175.jpg",
      "main_category": "Non-Profit / Emergency Relief, Retail",
      "sub_category": "Snacks"
    },
    {
      "id": 600240,
      "name": "SENOR RICO RICE PUDDING",
      "upc": "",
      "description_short": "SENOR RICO RICE PUDDING",
      "brand_name": "Senor Rico-EP",
      "case_per_pallet": 252,
      "pack_size": "12/8 oz",
      "slug": "senor-rico-ep-senor-rico-rice-pudding-600240",
      "cool_school_point_eligible": false,
      "is_prototype": false,
      "is_closeout_product": false,
      "min_pallet_quantity": 1,
      "is_available": true,
      "is_wished": false,
      "sold_in_stack": false,
      "lead_time_days": 21,
      "for_mixed_pallet": true,
      "has_promo": false,
      "delivered_price": "4200.84",
      "delivered_case_price": "16.67",
      "per_unit_delivered_price": "1.39",
      "per_oz_delivered_price": "0.17",
      "plp_image_url": "https://images.epallet.com/production/media/products/images/vendor_5697/product_600240/plp_thumbnail_1589176.jpg",
      "main_category": "Non-Profit / Emergency Relief, Retail",
      "sub_category": "Snacks"
    },
    {
      "id": 600210,
      "name": "SENOR RICO RICE PUDDING",
      "upc": "9792812061",
      "description_short": "SENOR RICO RICE PUDDING",
      "brand_name": "Senor Rico-EP",
      "case_per_pallet": 130,
      "pack_size": "6/22 oz",
      "slug": "senor-rico-ep-senor-rico-rice-pudding-600210",
      "cool_school_point_eligible": false,
      "is_prototype": false,
      "is_closeout_product": false,
      "min_pallet_quantity": 1,
      "is_available": true,
      "is_wished": false,
      "sold_in_stack": false,
      "lead_time_days": 21,
      "for_mixed_pallet": false,
      "has_promo": false,
      "delivered_price": "2827.50",
      "delivered_case_price": "21.75",
      "per_unit_delivered_price": "3.62",
      "per_oz_delivered_price": "0.16",
      "plp_image_url": "https://images.epallet.com/production/media/products/images/vendor_5697/product_600210/plp_thumbnail_1589177.jpg",
      "main_category": "Non-Profit / Emergency Relief, Retail",
      "sub_category": "Snacks"
    },
    {
      "id": 600209,
      "name": "SENOR RICO 12PK ASSORTED GELATIN CUPS",
      "upc": "9792811213",
      "description_short": "SENOR RICO 12PK GELATIN ASST",
      "brand_name": "Senor Rico-EP",
      "case_per_pallet": 128,
      "pack_size": "4/42 oz",
      "slug": "senor-rico-ep-senor-rico-12pk-gelatin-assorted-600209",
      "cool_school_point_eligible": false,
      "is_prototype": false,
      "is_closeout_product": false,
      "min_pallet_quantity": 1,
      "is_available": true,
      "is_wished": false,
      "sold_in_stack": false,
      "lead_time_days": 21,
      "for_mixed_pallet": false,
      "has_promo": false,
      "delivered_price": "2675.20",
      "delivered_case_price": "20.90",
      "per_unit_delivered_price": "5.22",
      "per_oz_delivered_price": "0.12",
      "plp_image_url": "https://images.epallet.com/production/media/products/images/vendor_5697/product_600209/plp_thumbnail_1589175.jpg",
      "main_category": "Non-Profit / Emergency Relief, Retail",
      "sub_category": "Snacks"
    },
    {
      "id": 600208,
      "name": "SENOR RICO RICE PUDDING",
      "upc": "",
      "description_short": "SENOR RICO RICE PUDDING",
      "brand_name": "Senor Rico-EP",
      "case_per_pallet": 252,
      "pack_size": "12/8 oz",
      "slug": "senor-rico-ep-senor-rico-rice-pudding-600208",
      "cool_school_point_eligible": false,
      "is_prototype": false,
      "is_closeout_product": false,
      "min_pallet_quantity": 1,
      "is_available": true,
      "is_wished": false,
      "sold_in_stack": false,
      "lead_time_days": 21,
      "for_mixed_pallet": false,
      "has_promo": false,
      "delivered_price": "4087.44",
      "delivered_case_price": "16.22",
      "per_unit_delivered_price": "1.35",
      "per_oz_delivered_price": "0.17",
      "plp_image_url": "https://images.epallet.com/production/media/products/images/vendor_5697/product_600208/plp_thumbnail_1589176.jpg",
      "main_category": "Non-Profit / Emergency Relief, Retail",
      "sub_category": "Snacks"
    },
    {
      "id": 600207,
      "name": "SENOR RICO REAL DESSERT SUGAR FREE PARFAIT, 8CT",
      "upc": "4427604316",
      "description_short": "SR REAL DESSERT SF PARFAIT",
      "brand_name": "Senor Rico-EP",
      "case_per_pallet": 126,
      "pack_size": "6/28 oz",
      "slug": "senor-rico-ep-senor-rico-real-dessert-sugar-free-parfait-600207",
      "cool_school_point_eligible": false,
      "is_prototype": false,
      "is_closeout_product": false,
      "min_pallet_quantity": 1,
      "is_available": true,
      "is_wished": false,
      "sold_in_stack": false,
      "lead_time_days": 21,
      "for_mixed_pallet": false,
      "has_promo": false,
      "delivered_price": "3441.06",
      "delivered_case_price": "27.31",
      "per_unit_delivered_price": "4.55",
      "per_oz_delivered_price": "0.16",
      "plp_image_url": "https://images.epallet.com/production/media/products/images/vendor_5697/product_600207/plp_thumbnail_1589178.jpg",
      "main_category": "Non-Profit / Emergency Relief, Retail",
      "sub_category": "Snacks"
    },
    {
      "id": 600206,
      "name": "SENOR RICO REAL DESSERT SUGAR FREE GELATIN",
      "upc": "4427604317",
      "description_short": "SR REAL DESSERT SF GELATIN",
      "brand_name": "Senor Rico-EP",
      "case_per_pallet": 128,
      "pack_size": "4/39 oz",
      "slug": "senor-rico-ep-senor-rico-real-dessert-sugar-free-gelatin-600206",
      "cool_school_point_eligible": false,
      "is_prototype": false,
      "is_closeout_product": false,
      "min_pallet_quantity": 1,
      "is_available": true,
      "is_wished": false,
      "sold_in_stack": false,
      "lead_time_days": 21,
      "for_mixed_pallet": false,
      "has_promo": false,
      "delivered_price": "2776.32",
      "delivered_case_price": "21.69",
      "per_unit_delivered_price": "5.42",
      "per_oz_delivered_price": "0.14",
      "plp_image_url": "https://images.epallet.com/production/media/products/images/vendor_5697/product_600206/plp_thumbnail_1589179.jpg",
      "main_category": "Non-Profit / Emergency Relief, Retail",
      "sub_category": "Snacks"
    },
    {
      "id": 600052,
      "name": "TROPICAL CHIPS PLANTAIN",
      "upc": "7299502008",
      "description_short": "TROPICAL CHIPS PLANTAIN",
      "brand_name": "Tropical Chips-EP",
      "case_per_pallet": 80,
      "pack_size": "18/3 oz",
      "slug": "tropical-chips-ep-tropical-chips-plantain-600052",
      "cool_school_point_eligible": false,
      "is_prototype": false,
      "is_closeout_product": false,
      "min_pallet_quantity": 1,
      "is_available": true,
      "is_wished": false,
      "sold_in_stack": false,
      "lead_time_days": 21,
      "for_mixed_pallet": true,
      "has_promo": false,
      "delivered_price": "2108.00",
      "delivered_case_price": "26.35",
      "per_unit_delivered_price": "1.46",
      "per_oz_delivered_price": "0.49",
      "plp_image_url": "https://images.epallet.com/production/media/products/images/vendor_5697/product_600052/plp_thumbnail_1588993.jpg",
      "main_category": "Non-Profit / Emergency Relief, Retail",
      "sub_category": "Snacks"
    },
    {
      "id": 600017,
      "name": "TROPICAL CHIPS PLANTAIN",
      "upc": "7299502008",
      "description_short": "TROPICAL CHIPS PLANTAIN",
      "brand_name": "Tropical Chips-EP",
      "case_per_pallet": 80,
      "pack_size": "18/3 oz",
      "slug": "tropical-chips-ep-tropical-chips-plantain-600017",
      "cool_school_point_eligible": false,
      "is_prototype": false,
      "is_closeout_product": false,
      "min_pallet_quantity": 1,
      "is_available": true,
      "is_wished": false,
      "sold_in_stack": false,
      "lead_time_days": 21,
      "for_mixed_pallet": false,
      "has_promo": false,
      "delivered_price": "2058.40",
      "delivered_case_price": "25.73",
      "per_unit_delivered_price": "1.43",
      "per_oz_delivered_price": "0.48",
      "plp_image_url": "https://images.epallet.com/production/media/products/images/vendor_5697/product_600017/plp_thumbnail_1588993.jpg",
      "main_category": "Non-Profit / Emergency Relief, Retail",
      "sub_category": "Snacks"
    },
    {
      "id": 599976,
      "name": "CHEEZ-IT ORIGINAL CRACKERS",
      "upc": "2410044070",
      "description_short": "CHEEZ-IT ORIGINAL CRACKERS",
      "brand_name": "Cheez-It-EP",
      "case_per_pallet": 30,
      "pack_size": "12/21 oz",
      "slug": "cheez-it-ep-cheez-it-original-crackers-599976",
      "cool_school_point_eligible": false,
      "is_prototype": false,
      "is_closeout_product": false,
      "min_pallet_quantity": 1,
      "is_available": true,
      "is_wished": false,
      "sold_in_stack": false,
      "lead_time_days": 21,
      "for_mixed_pallet": true,
      "has_promo": false,
      "delivered_price": "2868.60",
      "delivered_case_price": "95.62",
      "per_unit_delivered_price": "7.97",
      "per_oz_delivered_price": "0.38",
      "plp_image_url": "https://images.epallet.com/production/media/products/images/vendor_5697/product_599976/plp_thumbnail_1588902.jpg",
      "main_category": "Non-Profit / Emergency Relief, Retail",
      "sub_category": "Snacks"
    },
    {
      "id": 599975,
      "name": "CHEEZ-IT VARIETY PK 12CT-OZ BAGS",
      "upc": "2410094027",
      "description_short": "CHEEZ-IT VARIETY PK 12CT",
      "brand_name": "Cheez-It-EP",
      "case_per_pallet": 75,
      "pack_size": "4/12/1 oz",
      "slug": "cheez-it-ep-cheez-it-variety-pk-12ct-oz-bags-599975",
      "cool_school_point_eligible": false,
      "is_prototype": false,
      "is_closeout_product": false,
      "min_pallet_quantity": 1,
      "is_available": true,
      "is_wished": false,
      "sold_in_stack": false,
      "lead_time_days": 21,
      "for_mixed_pallet": true,
      "has_promo": false,
      "delivered_price": "2404.50",
      "delivered_case_price": "32.06",
      "per_unit_delivered_price": "0.67",
      "per_oz_delivered_price": "0.67",
      "plp_image_url": "https://images.epallet.com/production/media/products/images/vendor_5697/product_599975/plp_thumbnail_1588901.jpg",
      "main_category": "Non-Profit / Emergency Relief, Retail",
      "sub_category": "Snacks"
    },
    {
      "id": 599974,
      "name": "CHIPS AHOY CHEWY FAMILY SIZE",
      "upc": "4400003339",
      "description_short": "CHIPS AHOY CHEWY FAM SZ",
      "brand_name": "Chips Ahoy-EP",
      "case_per_pallet": 48,
      "pack_size": "12/19.5 oz",
      "slug": "chips-ahoy-ep-chips-ahoy-chewy-family-size-599974",
      "cool_school_point_eligible": false,
      "is_prototype": false,
      "is_closeout_product": false,
      "min_pallet_quantity": 1,
      "is_available": true,
      "is_wished": false,
      "sold_in_stack": false,
      "lead_time_days": 21,
      "for_mixed_pallet": true,
      "has_promo": false,
      "delivered_price": "3240.96",
      "delivered_case_price": "67.52",
      "per_unit_delivered_price": "5.63",
      "per_oz_delivered_price": "0.29",
      "plp_image_url": "https://images.epallet.com/production/media/products/images/vendor_5697/product_599974/plp_thumbnail_1588900.jpg",
      "main_category": "Non-Profit / Emergency Relief, Retail",
      "sub_category": "Snacks"
    },
    {
      "id": 599973,
      "name": "CHIPS AHOY ORIGINAL FAMILY SIZE",
      "upc": "4400003338",
      "description_short": "CHIPS AHOY ORIG FAM SIZE",
      "brand_name": "Chips Ahoy-EP",
      "case_per_pallet": 44,
      "pack_size": "12/18.2 oz",
      "slug": "chips-ahoy-ep-chips-ahoy-original-family-size-599973",
      "cool_school_point_eligible": false,
      "is_prototype": false,
      "is_closeout_product": false,
      "min_pallet_quantity": 1,
      "is_available": true,
      "is_wished": false,
      "sold_in_stack": false,
      "lead_time_days": 21,
      "for_mixed_pallet": true,
      "has_promo": false,
      "delivered_price": "2970.00",
      "delivered_case_price": "67.50",
      "per_unit_delivered_price": "5.62",
      "per_oz_delivered_price": "0.31",
      "plp_image_url": "https://images.epallet.com/production/media/products/images/vendor_5697/product_599973/plp_thumbnail_1588899.jpg",
      "main_category": "Non-Profit / Emergency Relief, Retail",
      "sub_category": "Snacks"
    },
    {
      "id": 599968,
      "name": "SLIM JIM GIANT MILD",
      "upc": "2620011750",
      "description_short": "SLIM JIM GIANT MILD",
      "brand_name": "Slim Jim-EP",
      "case_per_pallet": 78,
      "pack_size": "24/0.97 oz",
      "slug": "slim-jim-ep-slim-jim-giant-mild-599968",
      "cool_school_point_eligible": false,
      "is_prototype": false,
      "is_closeout_product": false,
      "min_pallet_quantity": 1,
      "is_available": true,
      "is_wished": false,
      "sold_in_stack": false,
      "lead_time_days": 21,
      "for_mixed_pallet": true,
      "has_promo": false,
      "delivered_price": "2596.62",
      "delivered_case_price": "33.29",
      "per_unit_delivered_price": "1.39",
      "per_oz_delivered_price": "1.43",
      "plp_image_url": "https://images.epallet.com/production/media/products/images/vendor_5697/product_599968/plp_thumbnail_1588871.jpg",
      "main_category": "Non-Profit / Emergency Relief, Retail",
      "sub_category": "Meat & Seafood, Snacks"
    },
    {
      "id": 599964,
      "name": "SLIM JIM ORIGINAL STICK",
      "upc": "2620011700",
      "description_short": "SLIM JIM ORIGINAL STICK",
      "brand_name": "Slim Jim-EP",
      "case_per_pallet": 78,
      "pack_size": "24/0.97 oz",
      "slug": "slim-jim-ep-slim-jim-original-stick-599964",
      "cool_school_point_eligible": false,
      "is_prototype": false,
      "is_closeout_product": false,
      "min_pallet_quantity": 1,
      "is_available": true,
      "is_wished": false,
      "sold_in_stack": false,
      "lead_time_days": 21,
      "for_mixed_pallet": true,
      "has_promo": false,
      "delivered_price": "2596.62",
      "delivered_case_price": "33.29",
      "per_unit_delivered_price": "1.39",
      "per_oz_delivered_price": "1.43",
      "plp_image_url": "https://images.epallet.com/production/media/products/images/vendor_5697/product_599964/plp_thumbnail_1588870.jpg",
      "main_category": "Non-Profit / Emergency Relief, Retail",
      "sub_category": "Meat & Seafood, Snacks"
    },
    {
      "id": 599958,
      "name": "SLIM JIM ORIGINAL SNACK SIZE STICKS 14CT .28OZ",
      "upc": "2620016236",
      "description_short": "SLIM JIM GABLE ORIGINAL 14CT",
      "brand_name": "Slim Jim-EP",
      "case_per_pallet": 238,
      "pack_size": "7/3.92 oz",
      "slug": "slim-jim-ep-slim-jim-original-snack-size-sticks-14ct-28oz-599958",
      "cool_school_point_eligible": false,
      "is_prototype": false,
      "is_closeout_product": false,
      "min_pallet_quantity": 1,
      "is_available": true,
      "is_wished": false,
      "sold_in_stack": false,
      "lead_time_days": 21,
      "for_mixed_pallet": true,
      "has_promo": false,
      "delivered_price": "6492.64",
      "delivered_case_price": "27.28",
      "per_unit_delivered_price": "3.90",
      "per_oz_delivered_price": "0.99",
      "plp_image_url": "https://images.epallet.com/production/media/products/images/vendor_5697/product_599958/plp_thumbnail_1588869.jpg",
      "main_category": "Non-Profit / Emergency Relief, Retail",
      "sub_category": "Meat & Seafood, Snacks"
    },
    {
      "id": 599957,
      "name": "JACK LINK'S BEEF CHEESE STICKS",
      "upc": "1708200039",
      "description_short": "JLNK BEEF CHEESE STICKS",
      "brand_name": "Jack Link's-EP",
      "case_per_pallet": 144,
      "pack_size": "16/1.2 oz",
      "slug": "jack-links-ep-jack-links-beef-cheese-sticks-599957",
      "cool_school_point_eligible": false,
      "is_prototype": false,
      "is_closeout_product": false,
      "min_pallet_quantity": 1,
      "is_available": true,
      "is_wished": false,
      "sold_in_stack": false,
      "lead_time_days": 21,
      "for_mixed_pallet": true,
      "has_promo": false,
      "delivered_price": "4082.40",
      "delivered_case_price": "28.35",
      "per_unit_delivered_price": "1.77",
      "per_oz_delivered_price": "1.48",
      "plp_image_url": "https://images.epallet.com/production/media/products/images/vendor_5697/product_599957/plp_thumbnail_1588883.jpg",
      "main_category": "Non-Profit / Emergency Relief, Retail",
      "sub_category": "Meat & Seafood, Snacks"
    },
    {
      "id": 599955,
      "name": "GOLDFISH CHEDDAR",
      "upc": "1410008547",
      "description_short": "GOLDFISH CHEDDAR",
      "brand_name": "Goldfish-EP",
      "case_per_pallet": 96,
      "pack_size": "12/6.6 oz",
      "slug": "goldfish-ep-goldfish-cheddar-599955",
      "cool_school_point_eligible": false,
      "is_prototype": false,
      "is_closeout_product": false,
      "min_pallet_quantity": 1,
      "is_available": true,
      "is_wished": false,
      "sold_in_stack": false,
      "lead_time_days": 21,
      "for_mixed_pallet": true,
      "has_promo": false,
      "delivered_price": "3996.48",
      "delivered_case_price": "41.63",
      "per_unit_delivered_price": "3.47",
      "per_oz_delivered_price": "0.53",
      "plp_image_url": "https://images.epallet.com/production/media/products/images/vendor_5697/product_599955/plp_thumbnail_1588891.jpg",
      "main_category": "Non-Profit / Emergency Relief, Retail",
      "sub_category": "Snacks"
    },
    {
      "id": 599950,
      "name": "CRUNCH N' MUNCH BUTTERY TOFFEE",
      "upc": "6414410235",
      "description_short": "CRUNCH N' MUNCH BTTRY TOFFEE",
      "brand_name": "Crunch N' Munch-EP",
      "case_per_pallet": 45,
      "pack_size": "12/6 oz",
      "slug": "crunch-n-munch-ep-crunch-n-munch-buttery-toffee-599950",
      "cool_school_point_eligible": false,
      "is_prototype": false,
      "is_closeout_product": false,
      "min_pallet_quantity": 1,
      "is_available": true,
      "is_wished": false,
      "sold_in_stack": false,
      "lead_time_days": 21,
      "for_mixed_pallet": true,
      "has_promo": false,
      "delivered_price": "1172.25",
      "delivered_case_price": "26.05",
      "per_unit_delivered_price": "2.17",
      "per_oz_delivered_price": "0.36",
      "plp_image_url": "https://images.epallet.com/production/media/products/images/vendor_5697/product_599950/plp_thumbnail_1588896.jpg",
      "main_category": "Non-Profit / Emergency Relief, Retail",
      "sub_category": "Snacks"
    },
    {
      "id": 599949,
      "name": "DAVID SUNFLOWER SEEDS ORIGINAL",
      "upc": "2620046172",
      "description_short": "DAVID SUNFLOWER SEEDS ORIG",
      "brand_name": "David-EP",
      "case_per_pallet": 108,
      "pack_size": "12/5.25 oz",
      "slug": "david-ep-david-sunflower-seeds-original-599949",
      "cool_school_point_eligible": false,
      "is_prototype": false,
      "is_closeout_product": false,
      "min_pallet_quantity": 1,
      "is_available": true,
      "is_wished": false,
      "sold_in_stack": false,
      "lead_time_days": 21,
      "for_mixed_pallet": true,
      "has_promo": false,
      "delivered_price": "2388.96",
      "delivered_case_price": "22.12",
      "per_unit_delivered_price": "1.84",
      "per_oz_delivered_price": "0.35",
      "plp_image_url": "https://images.epallet.com/production/media/products/images/vendor_5697/product_599949/plp_thumbnail_1588895.jpg",
      "main_category": "Non-Profit / Emergency Relief, Retail",
      "sub_category": "Legumes, Nuts & Seeds, Snacks"
    }
  ]
}